Regional Housing Framework
…
pzjoin2 <- pzjoin2 %>% 
  mutate(zoning = if_else(rockflag ==1, ZONE, zoning))

pzjoin2 %>% 
  filter(rockflag ==1) %>% 
  count(zoning)

## Simple feature collection with 21 features and 2 fields
## geometry type:  MULTIPOINT
## dimension:      XY
## bbox:           xmin: -77.1996 ymin: 39.05348 xmax: -77.10841 ymax: 39.11915
## epsg (SRID):    4326
## proj4string:    +proj=longlat +datum=WGS84 +no_defs
## # A tibble: 21 x 3
##    zoning     n                                                    geometry
##    <chr>  <int>                                           <MULTIPOINT []>
##  1 IL       129 (-77.15288 39.09909, -77.15229 39.09918, -77.15223 39.0990~
##  2 MXB       71 (-77.15155 39.09493, -77.14957 39.08997, -77.14945 39.0896~
##  3 MXC       10 (-77.17789 39.08861, -77.17447 39.09177, -77.1743 39.09154~
##  4 MXCD     131 (-77.16196 39.11394, -77.16022 39.06415, -77.15942 39.0618~
##  5 MXCT       8 (-77.13428 39.07013, -77.13005 39.06405, -77.12976 39.0637~
##  6 MXE       87 (-77.18965 39.10399, -77.18959 39.10544, -77.1895 39.10307~
##  7 MXNC      62 (-77.15483 39.09137, -77.15482 39.09141, -77.15482 39.0914~
##  8 MXT       75 (-77.1615 39.06925, -77.15583 39.0838, -77.15545 39.08273,~
##  9 MXTD      66 (-77.16884 39.11832, -77.1677 39.11752, -77.15248 39.08442~
## 10 PARK      34 (-77.1773 39.10038, -77.17467 39.10192, -77.16987 39.07683~
## # ... with 11 more rows
…
After the join, we convert back to a dataframe, for ease of computations.

pzjoin_df <- st_set_geometry(pzjoin4, NULL)

I remove a stop that Sarah put in because there will not be clean join because of missing prop data from Gaithersburg and Rockville.

pzjoin_df %>% 
  filter(rockflag == 1)

## # A tibble: 16,162 x 205
##    county_fips county_name assessorsparcel~ propaddress propcity propstate
##    <chr>       <chr>       <chr>            <chr>       <chr>    <chr>    
##  1 24031       Montgomery~ 09-03146564      15931 FRED~ DERWOOD  MD       
##  2 24031       Montgomery~ 04-00046467      14615 AVER~ ROCKVIL~ MD       
##  3 24031       Montgomery~ 04-00048158      14660 SOUT~ ROCKVIL~ MD       
##  4 24031       Montgomery~ 04-00048353      401 SOUTHL~ ROCKVIL~ MD       
##  5 24031       Montgomery~ 04-00048375      12900 TWIN~ ROCKVIL~ MD       
##  6 24031       Montgomery~ 04-00048524      9304 VEIRS~ ROCKVIL~ MD       
##  7 24031       Montgomery~ 04-00049073      1436 LONGH~ POTOMAC  MD       
##  8 24031       Montgomery~ 04-00049302      12904 TWIN~ ROCKVIL~ MD       
##  9 24031       Montgomery~ 04-00049357      14607 ROTH~ ROCKVIL~ MD       
## 10 24031       Montgomery~ 04-00049825      5611 HALPI~ ROCKVIL~ MD       
## # ... with 16,152 more rows, and 199 more variables: propzip <chr>,
## #   propunitno <chr>, prophouseno <chr>, propstreetname <chr>,
## #   propstreetsuffix <chr>, tract <chr>, owneroccupiedresidential <chr>,
## #   countylandusedescription <chr>, zoning <chr>, buildingarea <dbl>,
## #   noofbuildings <int>, noofstories <chr>, numberofunits <dbl>,
## #   yearbuilt <chr>, lotsize_acres <dbl>, lotsize_sf <dbl>,
## #   address_type <chr>, category <chr>, category_detail <chr>,
## #   residential <dbl>, building_type <chr>, totalassessedvalue <dbl>,
## #   assessedlandvalue <dbl>, assessedimprovementvalue <dbl>,
…
